state_code,nobs,mostFreq,mean_age,mode_age,med_age,count,traf_count,med_p1,med_p2,med_p3,med_p4,med_p5,med_p6,med_p7,med_p8,prop,name,description,lats,lons
WA,33937, sweet ,23.54,21,23,38713,3100,100,170,200,240,237.5,325,450,600,28.434,Washington,Olympia,47.035805,-122.905014
TX,12758, sweet ,24.15,22,23,7505,2628,60,137.5,140,150,635,240,350,386,10.689,Texas,Austin,30.27467,-97.740349
CA,8824, girl ,23.44,22,22,7077,838,99,160,232.5,200,260,350,420,362,7.393,California,Sacramento,38.576668,-121.493629
NY,8730, girl ,23,21,22,6443,1112,20,160,120,200,999,400,395,115,7.314,New York,New York,40.78333333,-73.96666667
IL,6604, girl ,24.02,22,22,4832,1415,80,150,200,200,999,405,405,294,5.533,Illinois,Springfield,39.798363,-89.654961
GA,7266, sweet ,24.47,22,23,4681,1628,70,140,137.5,160,285,225,240,101,6.088,Georgia,Atlanta,33.749027,-84.388229
NV,4393, girl ,24.85,23,23,3888,141,120,200,312.5,300,999,450,600,750,3.681,Nevada,Carson City,39.163914,-119.766121
MA,4566, girl ,24.27,21,23,3412,972,80,150,250,200,387.5,360,500,180,3.826,Massachusetts,Boston,42.358162,-71.063698
FL,4606, sweet ,25.19,22,23,3359,902,70,127.5,137.5,200,999,265,400,999,3.859,Florida,Tallahassee,30.438118,-84.281296
PA,5021, girl ,24.35,21,23,3210,1026,100,140,185,200,999,362.5,475,650,4.207,Pennsylvania,Harrisburg,40.264378,-76.883598
NJ,3953, sweet ,26.03,25,25,2897,232,140,175,215,220,345,350,450,550,3.312,New Jersey,Trenton,40.220596,-74.769913
OR,2781, sweet ,24.44,22,22.5,2728,154,100,160,175,220,225,300,450,400,2.33,Oregon,Salem,44.938461,-123.030403
NC,3853, girl ,25.12,21,23,2723,766,60,135,125,150,150,120,115,999,3.228,North Carolina,Raleigh,35.78043,-78.639099
OH,1822, girl ,23.93,25,25,2525,25,110,160,175,220,999,320,500,500,1.527,Ohio,Columbus,39.961346,-82.999069
VA,2365, girl ,23.72,21,23,1465,499,100,150,180,160,999,999,120,101,1.982,Virginia,Richmond,37.538857,-77.43364
MD,1040, sweet ,23.77,22,23,425,247,80,150,115,160,999,999,321,534,0.871,Maryland,Annapolis,38.978764,-76.490936
MI,1010, sweet ,24.74,21,24,369,0,80,195,999,325,999,650,999,999,0.846,Michigan,Lansing,42.733635,-84.555328
AZ,372, sweet ,23.33,23,23,341,4,110,180,225,250,999,300,500,800,0.312,Arizona,Phoenix,33.448143,-112.096962
ID,612, sweet ,22.14,21,21,303,7,125,180,200,250,999,365,410,550,0.513,Idaho,Boise,43.617775,-116.199722
MO,714, sweet ,27.21,23,25,298,1,999,150,999,200,999,300,325,999,0.598,Missouri,Jefferson City,38.579201,-92.172935
LA,812, sweet ,27.02,25,25,237,0,999,185,999,260,999,600,600,800,0.68,Louisiana,Baton Rouge,30.457069,-91.187393
CO,161, sweet ,19,19,19,187,21,120,200,331.25,300,999,450,500,750,0.135,Colorado,Denver,39.739227,-104.984856
AL,395, girl ,25.42,21,25,177,0,999,999,999,999,999,999,999,999,0.331,Alabama,Montgomery,32.377716,-86.300568
CT,202, sweet ,23.95,26,23,166,72,999,195,155,300,999,525,600,275,0.169,Connecticut,Hartford,41.764046,-72.682198
UT,277, sweet ,27.83,27,27,150,6,100,165,999,250,440,500,550,800,0.232,Utah,Salt Lake City,40.777477,-111.888237
MT,123, sweet ,19,19,19,105,0,120,170,215,220,999,250,375,437.5,0.103,Montana,Helena,46.585709,-112.018417
HI,6, roses ,999,999,999,26,1,999,200,999,400,999,999,999,999,0.005,Hawaii,Honolulu,21.307442,-157.857376
AK,23, girl ,999,999,999,23,0,200,210,999,390,999,420,500,600,0.019,Alaska,Juneau,58.301598,-134.420212
DE,42, cute ,29,29,29,8,2,999,550,999,350,999,425,512.5,725,0.035,Delaware,Dover,39.157307,-75.519722
MN,5, girl ,999,999,999,8,0,250,350,999,387.25,999,600,800,900,0.004,Minnesota,St. Paul,44.955097,-93.102211
RI,1, first time ,999,999,999,6,0,999,999,999,999,999,999,999,999,0.001,Rhode Island,Providence,41.830914,-71.414963
KY,5, sweet ,999,999,999,5,0,999,135,999,200,999,999,300,999,0.004,Kentucky,Frankfort,38.186722,-84.875374
OK,2, petite ,999,999,999,4,0,999,999,999,999,999,999,999,999,0.002,Oklahoma,Oklahoma City,35.492207,-97.503342
SD,2, bubbly ,999,999,999,4,0,999,999,999,999,999,999,999,999,0.002,South Dakota,Pierre,44.367031,-100.346405
SC,4, princess ,999,999,999,2,0,999,187.5,999,287.5,999,999,999,999,0.003,South Carolina,Columbia,34.000343,-81.033211
AR,1, sweet ,999,999,999,1,0,999,999,999,999,999,999,999,999,0.001,Arkansas,Little Rock,34.746613,-92.288986
IN,11, newbie ,999,999,999,1,0,999,999,999,600,999,450,999,999,0.009,Indiana,Indianapolis,39.768623,-86.162643
WI,2, girl ,999,999,999,1,0,999,999,999,999,999,999,999,999,0.002,Wisconsin,Madison,43.074684,-89.384445
WY,2, sweet ,999,999,999,1,0,100,140,999,200,999,999,999,999,0.002,Wyoming,Cheyenne,41.140259,-104.820236
ND,2,999,999,999,999,0,0,120,170,999,999,999,999,999,999,0.002,North Dakota,Bismarck,46.82085,-100.783318
NM,1,999,999,999,999,0,0,999,999,999,999,999,999,999,999,0.001,New Mexico,Santa Fe,35.68224,-105.939728
TN,3,999,999,999,999,0,0,999,999,999,999,999,999,999,999,0.003,Tennessee,Nashville,36.16581,-86.784241